<svg xmlns="http://www.w3.org/2000/svg" xmlns:xlink="http://www.w3.org/1999/xlink" viewBox="0 0 32 32">
  <defs>
    <radialGradient id="a" cx="16" cy="18" r="14" gradientTransform="matrix(1, 0, 0, -1, 0, 34)" gradientUnits="userSpaceOnUse">
      <stop offset="0" stop-color="#1ac0e3"/>
      <stop offset="0.308" stop-color="#19b8e8"/>
      <stop offset="0.788" stop-color="#18a2f7"/>
      <stop offset="1" stop-color="#1796ff"/>
    </radialGradient>
  </defs>
  <title>Artboard 1</title>
  <g>
    <circle cx="16" cy="16" r="14" fill="url(#a)"/>
    <g>
      <polygon points="13.997 13.997 24.4 7.6 18.003 18.003 7.6 24.4 13.997 13.997" fill="#ebebeb"/>
      <polygon points="13.997 13.997 24.4 7.6 18.003 18.003 13.997 13.997" fill="#f23333"/>
    </g>
  </g>
</svg>
