<svg xmlns="http://www.w3.org/2000/svg" viewBox="0 0 32 32">
  <title>win10</title>
  <path d="M2,16.271V6.258L13.581,4.688V16.271H2Zm12.739,0H29.795V2.374L14.739,4.466V16.271ZM13.581,17.43H2v8.856l11.581,1.569V17.43Zm1.158,0V28.077l15.056,2.092V17.43H14.739Z" fill="#00bdf6"/>
</svg>
