<svg xmlns="http://www.w3.org/2000/svg" viewBox="0 0 32 32">
  <title>convert</title>
  <g>
    <path d="M8,15.172V10H24v4l6-6L24,2V6H6.1A2.1,2.1,0,0,0,4,8.1V19.172l2.586-2.586Z"/>
    <path d="M24,16.828V22H8V18L2,24l6,6V26H25.9A2.1,2.1,0,0,0,28,23.9V12.828l-2.586,2.586Z"/>
  </g>
</svg>
