<svg xmlns="http://www.w3.org/2000/svg" viewBox="0 0 32 32">
  <title>folder</title>
  <path d="M29.9,6H12L10,4H2.1A2.1,2.1,0,0,0,0,6.1V25.9A2.1,2.1,0,0,0,2.1,28H29.9A2.1,2.1,0,0,0,32,25.9V8.1A2.1,2.1,0,0,0,29.9,6Z"/>
</svg>
