<svg xmlns="http://www.w3.org/2000/svg" viewBox="0 0 32 32">
  <title>vsphere</title>
  <path d="M27.9,2H12.1A2.1,2.1,0,0,0,10,4.1V10H4.1A2.1,2.1,0,0,0,2,12.1V27.9A2.1,2.1,0,0,0,4.1,30H19.9A2.1,2.1,0,0,0,22,27.9V22h5.9A2.1,2.1,0,0,0,30,19.9V4.1A2.1,2.1,0,0,0,27.9,2ZM28,20H20v8H4V12h8V4H28V20Z"/>
  <polygon points="26 6 14 6 14 14 6 14 6 26 18 26 18 18 26 18 26 6"/>
</svg>
