<svg xmlns="http://www.w3.org/2000/svg" viewBox="0 0 32 32">
  <title>ccw</title>
  <path d="M17.884,2.8A13.215,13.215,0,0,0,4.684,16H0.916l5.6,6.25,5.6-6.25H7.884a10.039,10.039,0,1,1,4,7.979L9.75,26.358A13.188,13.188,0,1,0,17.884,2.8Z"/>
</svg>
