<svg xmlns="http://www.w3.org/2000/svg" viewBox="0 0 32 32">
  <title>puzzle</title>
  <path d="M27.8,14a3.78,3.78,0,0,0-1.8.471V6H17.529A3.78,3.78,0,0,0,18,4.2a4,4,0,0,0-8,0A3.78,3.78,0,0,0,10.471,6H2v8.471A3.78,3.78,0,0,1,3.8,14a4,4,0,0,1,0,8A3.78,3.78,0,0,1,2,21.529V30h8.471A3.78,3.78,0,0,1,10,28.2a4,4,0,0,1,8,0,3.78,3.78,0,0,1-.471,1.8H26V21.529A3.78,3.78,0,0,0,27.8,22,4,4,0,0,0,27.8,14Z"/>
</svg>
