<svg xmlns="http://www.w3.org/2000/svg" viewBox="0 0 32 32">
  <title>download</title>
  <g>
    <path d="M16,3.2A12.8,12.8,0,1,1,3.2,16,12.814,12.814,0,0,1,16,3.2m0-2A14.8,14.8,0,1,0,30.8,16,14.8,14.8,0,0,0,16,1.2Z"/>
    <polygon points="13 16 13 9 19 9 19 16 23.5 16 16 23.5 8.5 16 13 16"/>
  </g>
</svg>
