<svg xmlns="http://www.w3.org/2000/svg" viewBox="0 0 32 32">
  <title>info</title>
  <path d="M16,1.2A14.8,14.8,0,1,0,30.8,16,14.8,14.8,0,0,0,16,1.2Zm0,7.05a1.539,1.539,0,1,1-1.539,1.539A1.539,1.539,0,0,1,16,8.25ZM19.386,24H12.614V22.519h1.847V14H12.614V12.668h4.925v9.851h1.847V24Z"/>
</svg>
