<svg xmlns="http://www.w3.org/2000/svg" viewBox="0 0 32 32">
  <title>search-circled</title>
  <g>
    <circle cx="14.219" cy="14.219" r="4.976"/>
    <path d="M16,1.2A14.8,14.8,0,1,0,30.8,16,14.8,14.8,0,0,0,16,1.2ZM23.324,25l-4.982-4.982a7.139,7.139,0,1,1,1.679-1.679L25,23.324Z"/>
  </g>
</svg>
