<svg xmlns="http://www.w3.org/2000/svg" viewBox="0 0 32 32">
  <title>filter</title>
  <path d="M27.26,4H4.74A1.737,1.737,0,0,0,3.5,6.957L14,17.592V26.4a2.1,2.1,0,0,0,.615,1.485l1.849,1.849A0.9,0.9,0,0,0,18,29.1V17.592L28.5,6.957A1.737,1.737,0,0,0,27.26,4Z"/>
</svg>
