<svg xmlns="http://www.w3.org/2000/svg" viewBox="0 0 32 32">
  <title>file-text</title>
  <g>
    <g>
      <rect x="10" y="12" width="12" height="2"/>
      <rect x="10" y="16" width="12" height="2"/>
      <rect x="10" y="20" width="12" height="2"/>
    </g>
    <g>
      <path d="M28,6V30H4V2H24V0H4A2,2,0,0,0,2,2V30a2,2,0,0,0,2,2H28a2,2,0,0,0,2-2V6Z"/>
      <path d="M25,0V2.9A2.1,2.1,0,0,0,27.1,5H30Z"/>
    </g>
  </g>
</svg>
