<svg xmlns="http://www.w3.org/2000/svg" viewBox="0 0 32 32">
  <title>warning</title>
  <path d="M31.431,27.954L17.181,3.274a1.364,1.364,0,0,0-2.362,0L0.569,27.954A1.364,1.364,0,0,0,1.751,30h28.5A1.364,1.364,0,0,0,31.431,27.954ZM16,27.129a1.539,1.539,0,1,1,1.539-1.539A1.539,1.539,0,0,1,16,27.129Zm1.135-4.677H14.865l-0.4-11.6h3.078Z"/>
</svg>
