<svg xmlns="http://www.w3.org/2000/svg" viewBox="0 0 32 32">
  <title>tag</title>
  <path d="M29.222,15.222L16.615,2.615A2.1,2.1,0,0,0,15.13,2H8.87a2.1,2.1,0,0,0-1.485.615l-4.77,4.77A2.1,2.1,0,0,0,2,8.87v6.26a2.1,2.1,0,0,0,.615,1.485L15.222,29.222a2.1,2.1,0,0,0,2.97,0l11.03-11.03A2.1,2.1,0,0,0,29.222,15.222ZM9,11.8A2.8,2.8,0,1,1,11.8,9,2.8,2.8,0,0,1,9,11.8Z"/>
</svg>
