<svg xmlns="http://www.w3.org/2000/svg" viewBox="0 0 32 32">
  <title>comment-line</title>
  <path d="M6,28V24H4.1A2.1,2.1,0,0,1,2,21.9V6.1A2.1,2.1,0,0,1,4.1,4H27.9A2.1,2.1,0,0,1,30,6.1V21.9A2.1,2.1,0,0,1,27.9,24H14.32L7.581,28.814A1,1,0,0,1,6,28ZM4,22H8v4.057L13.68,22H28V6H4Z"/>
</svg>
