<svg xmlns="http://www.w3.org/2000/svg" viewBox="0 0 32 32">
  <title>mobile</title>
  <path d="M21.9,2H10.1A2.1,2.1,0,0,0,8,4.1V27.9A2.1,2.1,0,0,0,10.1,30H21.9A2.1,2.1,0,0,0,24,27.9V4.1A2.1,2.1,0,0,0,21.9,2ZM16,29.3A1.3,1.3,0,1,1,17.3,28,1.3,1.3,0,0,1,16,29.3ZM22,26H10V6H22V26Z"/>
</svg>
