<svg xmlns="http://www.w3.org/2000/svg" viewBox="0 0 32 32">
  <title>ccw-alt</title>
  <path d="M6.675,25.334a13.215,13.215,0,0,0,18.668,0L28.008,28l0.46-8.379-8.379.46,2.992,2.992A10.039,10.039,0,1,1,25.9,14.6l3.19-.175A13.188,13.188,0,1,0,6.675,25.334Z"/>
</svg>
