<svg xmlns="http://www.w3.org/2000/svg" viewBox="0 0 32 32">
  <title>icon_gitlab</title>
  <path d="M30.062,17.866,25.352,3.372a.538.538,0,0,0-1.024,0L21.2,13.005H10.8L7.671,3.372a.538.538,0,0,0-1.024,0L1.938,17.866a1.076,1.076,0,0,0,.391,1.2L16,29l13.672-9.931a1.076,1.076,0,0,0,.391-1.2"/>
</svg>
