<svg xmlns="http://www.w3.org/2000/svg" viewBox="0 0 32 32">
  <title>star-line</title>
  <path d="M28.174,11H19.455L16.761,2.712a.8.8,0,0,0-1.522,0L12.545,11H3.826a.8.8,0,0,0-.47,1.447l7.054,5.125L7.715,25.868a.8.8,0,0,0,1.231.894L16,21.638l7.054,5.125a.8.8,0,0,0,1.231-.894l-2.694-8.292,7.054-5.125A.8.8,0,0,0,28.174,11Zm-11,9.016L16,19.166l-1.176.854-4.066,2.954,1.553-4.78.449-1.382-1.176-.854L7.519,13H14l.449-1.382L16,6.842l1.553,4.78L18,13h6.479l-4.066,2.954-1.176.854.449,1.382,1.553,4.78Z"/>
</svg>
