<svg xmlns="http://www.w3.org/2000/svg" viewBox="0 0 32 32">
  <title>browser</title>
  <path d="M29.9,4H2.1A2.1,2.1,0,0,0,0,6.1V25.9A2.1,2.1,0,0,0,2.1,28H29.9A2.1,2.1,0,0,0,32,25.9V6.1A2.1,2.1,0,0,0,29.9,4ZM6,6H8V8H6ZM2,6H4V8H2ZM30,26H2V10H30ZM30,8H10V6H30Z"/>
</svg>
