<svg xmlns="http://www.w3.org/2000/svg" viewBox="0 0 32 32">
  <title>convert-file</title>
  <g>
    <g>
      <path d="M23,2V4.9A2.1,2.1,0,0,0,25.1,7H28Z"/>
      <path d="M6,12V4H22V2H6.1A2.1,2.1,0,0,0,4,4.1V12Z"/>
      <path d="M26,8V28H6V20H4v7.9A2.1,2.1,0,0,0,6.1,30H25.9A2.1,2.1,0,0,0,28,27.9V8Z"/>
    </g>
    <polygon points="22 16 16 10 16 14 4 14 4 18 16 18 16 22 22 16"/>
  </g>
</svg>
