<svg xmlns="http://www.w3.org/2000/svg" viewBox="0 0 32 32">
  <title>question-mark</title>
  <g>
    <circle cx="15.762" cy="28" r="3.117"/>
    <path d="M20.161,17.363a3.687,3.687,0,0,0-1.96,3.284V22H13V20.648a8.815,8.815,0,0,1,4.808-7.923,3.821,3.821,0,0,0,2.343-2.977,3.974,3.974,0,0,0-7.9,0h-5.2A9.077,9.077,0,0,1,16.2,1a9.077,9.077,0,0,1,9.152,8.747A8.81,8.81,0,0,1,20.161,17.363Z"/>
  </g>
</svg>
