<svg xmlns="http://www.w3.org/2000/svg" viewBox="0 0 32 32">
  <title>icon_jboss</title>
  <g>
    <circle cx="16.967" cy="6.98" r="1.307"/>
    <circle cx="21.516" cy="24.444" r="2.484"/>
    <path d="M17.542,23.556a2.2,2.2,0,1,1-2.2-2.2A2.226,2.226,0,0,1,17.542,23.556Z"/>
    <circle cx="10.536" cy="19.555" r="1.961"/>
    <circle cx="9.752" cy="14.039" r="1.752"/>
    <circle cx="12.601" cy="9.229" r="1.464"/>
    <circle cx="21.516" cy="6.17" r="1.098"/>
  </g>
</svg>
