<svg xmlns="http://www.w3.org/2000/svg" viewBox="0 0 32 32">
  <title>icon_microsoft</title>
  <g>
    <rect x="4" y="4" width="11" height="11"/>
    <rect x="17" y="4" width="11" height="11"/>
    <rect x="17" y="17" width="11" height="11"/>
    <rect x="4" y="17" width="11" height="11"/>
  </g>
</svg>
