<svg xmlns="http://www.w3.org/2000/svg" viewBox="0 0 32 32">
  <title>status</title>
  <path d="M29.9,4H2.1A2.1,2.1,0,0,0,0,6.1V25.9A2.1,2.1,0,0,0,2.1,28H29.9A2.1,2.1,0,0,0,32,25.9V6.1A2.1,2.1,0,0,0,29.9,4ZM2,6H30v9H23.118l-1.724-3.447A.987.987,0,0,0,20.458,11a1,1,0,0,0-.887.628l-3.041,7.6L12.937,9.648a1,1,0,0,0-1.831-.1L8.382,15H2ZM30,26H2V17H9a1,1,0,0,0,.895-.553L11.869,12.5l3.695,9.854a1,1,0,0,0,.926.648H16.5a1,1,0,0,0,.929-.629L20.6,14.439l1,2.008A1,1,0,0,0,22.5,17H30Z"/>
</svg>
