<svg xmlns="http://www.w3.org/2000/svg" viewBox="0 0 32 32">
  <title>draft</title>
  <g>
    <path d="M22,10.586a13.286,13.286,0,0,1,2,.878V4.1A2.1,2.1,0,0,0,21.9,2H8V4H22Z"/>
    <path d="M22,26v2H4V8H2V27.9A2.1,2.1,0,0,0,4.1,30H21.9A2.1,2.1,0,0,0,24,27.9V26Z"/>
    <path d="M7,2V4.9A2.1,2.1,0,0,1,4.9,7H2Z"/>
    <path d="M27.726,17.274c-1.859-2.349-5.157-5.387-9.811-5.387C9.831,11.888,5.081,19.5,5.081,19.5s5.427-4.01,11.3-3.507c3.787.325,6.227,3.246,7.446,5.183L21,24h9V15Z"/>
  </g>
</svg>
