<svg xmlns="http://www.w3.org/2000/svg" viewBox="0 0 32 32">
  <title>wrench</title>
  <path d="M16.071,4.05A8.482,8.482,0,0,0,8.515,1.708a.4.4,0,0,0-.194.673l4.992,4.992L12.558,11.9a.8.8,0,0,1-.658.658l-4.528.755L2.382,8.322a.4.4,0,0,0-.68.226,8.492,8.492,0,0,0,11.749,9.308L23.566,29.223a4,4,0,0,0,5.657-5.657L17.848,13.444A8.493,8.493,0,0,0,16.071,4.05Zm11.809,23.83a2.1,2.1,0,1,1,0-2.97A2.1,2.1,0,0,1,27.879,27.879Z"/>
</svg>
