<svg xmlns="http://www.w3.org/2000/svg" viewBox="0 0 32 32">
  <title>store</title>
  <g>
    <path d="M31,10.25a3.75,3.75,0,0,1-7.5,0,3.75,3.75,0,0,1-7.5,0,3.75,3.75,0,0,1-7.5,0A3.75,3.75,0,1,1,1.22,8.99L3,4H29l1.78,4.99A3.75,3.75,0,0,1,31,10.25Z"/>
    <rect x="3" width="26" height="2" rx="1" ry="1"/>
    <path d="M28,15.945V27l-2-3H6L4,27V15.945A5.707,5.707,0,0,1,2,15.3V27.9A2.1,2.1,0,0,0,4.1,30H27.9A2.1,2.1,0,0,0,30,27.9V15.3A5.707,5.707,0,0,1,28,15.945Z"/>
  </g>
</svg>
