<svg xmlns="http://www.w3.org/2000/svg" viewBox="0 0 32 32">
  <title>search</title>
  <path d="M31.164,28.336l-8.39-8.39a12.024,12.024,0,1,0-2.828,2.828l8.39,8.39ZM3.5,13A9.5,9.5,0,1,1,13,22.5,9.511,9.511,0,0,1,3.5,13Z"/>
</svg>
