<svg xmlns="http://www.w3.org/2000/svg" viewBox="0 0 32 32">
  <title>success</title>
  <path d="M16,1.2A14.8,14.8,0,1,0,30.8,16,14.8,14.8,0,0,0,16,1.2ZM13.773,23.268L6.956,16.452l2.177-2.177,4.64,4.64L22.867,9.82,25.044,12Z"/>
</svg>
