<svg xmlns="http://www.w3.org/2000/svg" viewBox="0 0 32 32">
  <title>local-drive-small</title>
  <g>
    <rect x="22" y="25" width="2" height="2"/>
    <rect x="8" y="25" width="1" height="2"/>
    <rect x="10" y="25" width="1" height="2"/>
    <rect x="12" y="25" width="1" height="2"/>
    <rect x="14" y="25" width="1" height="2"/>
    <path d="M24,2H8A4,4,0,0,0,4,6V26a4,4,0,0,0,4,4H24a4,4,0,0,0,4-4V6A4,4,0,0,0,24,2Zm0,27H8a3,3,0,0,1,0-6H24a3,3,0,0,1,0,6Z"/>
  </g>
</svg>
