<svg xmlns="http://www.w3.org/2000/svg" viewBox="0 0 32 32">
  <title>close-circled</title>
  <path d="M16,1.2A14.8,14.8,0,1,0,30.8,16,14.8,14.8,0,0,0,16,1.2Zm6.859,19.538-2.121,2.121L16,18.121l-4.738,4.738L9.141,20.738,13.879,16,9.141,11.262l2.121-2.121L16,13.879l4.738-4.738,2.121,2.121L18.121,16Z"/>
</svg>
