<svg xmlns="http://www.w3.org/2000/svg" viewBox="0 0 32 32">
  <title>pie-chart</title>
  <g>
    <path d="M16,16V1.2A14.8,14.8,0,0,1,30.8,16Z"/>
    <path d="M28.628,18A12.792,12.792,0,1,1,14,3.372V1.351A14.792,14.792,0,1,0,30.649,18Z"/>
  </g>
</svg>
