<svg xmlns="http://www.w3.org/2000/svg" viewBox="0 0 32 32">
  <title>badge-code</title>
  <path d="M29.435,13.879l-1.556-1.556A3,3,0,0,1,27,10.2V8a3,3,0,0,0-3-3H21.8a3,3,0,0,1-2.121-.879L18.121,2.565a3,3,0,0,0-4.243,0L12.322,4.121A3,3,0,0,1,10.2,5H8A3,3,0,0,0,5,8v2.2a3,3,0,0,1-.879,2.121L2.565,13.879a3,3,0,0,0,0,4.243l1.556,1.556A3,3,0,0,1,5,21.8V24a3,3,0,0,0,3,3h2.2a3,3,0,0,1,2.121.879l1.556,1.556a3,3,0,0,0,4.243,0l1.556-1.556A3,3,0,0,1,21.8,27H24a3,3,0,0,0,3-3V21.8a3,3,0,0,1,.879-2.121l1.556-1.556A3,3,0,0,0,29.435,13.879ZM14.25,19.75l-1.5,1.5L7.5,16l5.25-5.25,1.5,1.5L10.5,16Zm5,1.5-1.5-1.5L21.5,16l-3.75-3.75,1.5-1.5L24.5,16Z"/>
</svg>
