<svg xmlns="http://www.w3.org/2000/svg" viewBox="0 0 32 32">
  <title>unplugged</title>
  <g>
    <path d="M13.893,18H12V14h1.893a2.074,2.074,0,0,0,2.08-1.664A2,2,0,0,0,14,10H12V6H6a6,6,0,0,0-6,6v8a6,6,0,0,0,6,6h6V22h2a2,2,0,0,0,1.973-2.336A2.074,2.074,0,0,0,13.893,18Z"/>
    <path d="M26,6H20v4h1.893a2.074,2.074,0,0,1,2.08,1.664A2,2,0,0,1,22,14H20v4h1.893a2.074,2.074,0,0,1,2.08,1.664A2,2,0,0,1,22,22H20v4h6a6,6,0,0,0,6-6V12A6,6,0,0,0,26,6Z" opacity="0.5"/>
  </g>
</svg>
