<svg xmlns="http://www.w3.org/2000/svg" viewBox="0 0 32 32">
  <title>git</title>
  <path d="M30.915,14.619,17.38,1.085a2,2,0,0,0-2.823,0L11.747,3.9l3.565,3.565a2.371,2.371,0,0,1,3,3.023L21.75,13.92a2.373,2.373,0,1,1-1.423,1.339l-3.2-3.2v8.433a2.372,2.372,0,1,1-1.953-.069V11.907A2.376,2.376,0,0,1,13.88,8.792L10.365,5.276l-9.281,9.28a2,2,0,0,0,0,2.824L14.62,30.915a2,2,0,0,0,2.823,0L30.915,17.444A2,2,0,0,0,30.915,14.619Z"/>
</svg>
