<svg xmlns="http://www.w3.org/2000/svg" viewBox="0 0 32 32">
  <title>pencil</title>
  <g>
    <path d="M30,6.068a1.343,1.343,0,0,0-.074-0.448A5.854,5.854,0,0,0,26.38,2.074,1.343,1.343,0,0,0,25.932,2H24.207L22.276,3.931l5.793,5.793L30,7.793V6.068Z"/>
    <polygon points="20.42 5.787 4.897 21.31 2 30 10.69 27.103 26.213 11.58 20.42 5.787"/>
  </g>
</svg>
