<svg xmlns="http://www.w3.org/2000/svg" viewBox="0 0 32 32">
  <title>cross</title>
  <polygon points="27.909 7.909 24.091 4.091 16 12.182 7.909 4.091 4.091 7.909 12.182 16 4.091 24.091 7.909 27.909 16 19.818 24.091 27.909 27.909 24.091 19.818 16 27.909 7.909"/>
</svg>
