<svg xmlns="http://www.w3.org/2000/svg" viewBox="0 0 32 32">
  <title>package</title>
  <g>
    <path d="M14.5,8H2L3.521,3.436A2.1,2.1,0,0,1,5.514,2H15Z"/>
    <path d="M30,8H17.5L17,2h9.486a2.1,2.1,0,0,1,1.992,1.436Z"/>
    <path d="M2,10V27.9A2.1,2.1,0,0,0,4.1,30H27.9A2.1,2.1,0,0,0,30,27.9h0V10ZM14,26H6V24h8Z"/>
  </g>
</svg>
