<svg xmlns="http://www.w3.org/2000/svg" viewBox="0 0 64 64">
  <title>stack-alt</title>
  <g>
    <polygon points="32 48 14.5 38 4 44 32 60 60 44 49.5 38 32 48" opacity="0.25"/>
    <polygon points="32 36 14.5 26 4 32 32 48 60 32 49.5 26 32 36" opacity="0.5"/>
    <polygon points="4 20 32 4 60 20 32 36 4 20" opacity="0.9"/>
  </g>
</svg>
