<svg xmlns="http://www.w3.org/2000/svg" viewBox="0 0 64 64">
  <title>icon_history</title>
  <g>
    <path d="M32.981,6A26.812,26.812,0,0,0,6.548,27H0L8.979,37,18,27H12.738A20.865,20.865,0,0,1,32.981,12C44.571,12,54,21.2,54,32.5S44.571,53,32.981,53a20.983,20.983,0,0,1-18.8-11.332L8.839,44.41A26.963,26.963,0,0,0,32.981,59C47.88,59,60,47.112,60,32.5S47.88,6,32.981,6Z" fill-rule="evenodd"/>
    <polygon points="31 19 31 35 31.172 35 38.778 42.607 41.607 39.778 35 33.172 35 19 31 19" fill-rule="evenodd"/>
  </g>
</svg>
