<svg xmlns="http://www.w3.org/2000/svg" viewBox="0 0 64 64">
  <title>container</title>
  <g>
    <polygon points="32 32 32 60 8 46 8 18 32 32" opacity="0.25"/>
    <polygon points="32 32 56 18 56 46 32 60 32 32" opacity="0.5"/>
    <polygon points="8 18 32 4 56 18 32 32 8 18" opacity="0.9"/>
  </g>
</svg>
